%YAML 1.1
%TAG !u! tag:unity3d.com,2011:
--- !u!74 &7400000
AnimationClip:
  m_ObjectHideFlags: 0
  m_CorrespondingSourceObject: {fileID: 0}
  m_PrefabInstance: {fileID: 0}
  m_PrefabAsset: {fileID: 0}
  m_Name: player_idle
  serializedVersion: 6
  m_Legacy: 0
  m_Compressed: 0
  m_UseHighQualityCurve: 1
  m_RotationCurves: []
  m_CompressedRotationCurves: []
  m_EulerCurves: []
  m_PositionCurves: []
  m_ScaleCurves: []
  m_FloatCurves: []
  m_PPtrCurves:
  - curve:
    - time: 0
      value: {fileID: 21300000, guid: 84ce2f114ad12bd4ebafc77060220324, type: 3}
    - time: 0.2
      value: {fileID: 21300000, guid: e70ab950968e2ef439f986ec395141c6, type: 3}
    - time: 0.4
      value: {fileID: 21300000, guid: 754f43f8fc4997f42b16428846136321, type: 3}
    - time: 0.6
      value: {fileID: 21300000, guid: 7425003c38c00d144af86a40ba87c12d, type: 3}
    - time: 0.8
      value: {fileID: 21300000, guid: 4a643494bdea168479e8de8698775b85, type: 3}
    - time: 1
      value: {fileID: 21300000, guid: d0fc8c27bd2d9d44e88e8a240ad8f68f, type: 3}
    attribute: m_Sprite
    path: 
    classID: 212
    script: {fileID: 0}
  m_SampleRate: 60
  m_WrapMode: 0
  m_Bounds:
    m_Center: {x: 0, y: 0, z: 0}
    m_Extent: {x: 0, y: 0, z: 0}
  m_ClipBindingConstant:
    genericBindings:
    - serializedVersion: 2
      path: 0
      attribute: 0
      script: {fileID: 0}
      typeID: 212
      customType: 23
      isPPtrCurve: 1
    pptrCurveMapping:
    - {fileID: 21300000, guid: 84ce2f114ad12bd4ebafc77060220324, type: 3}
    - {fileID: 21300000, guid: e70ab950968e2ef439f986ec395141c6, type: 3}
    - {fileID: 21300000, guid: 754f43f8fc4997f42b16428846136321, type: 3}
    - {fileID: 21300000, guid: 7425003c38c00d144af86a40ba87c12d, type: 3}
    - {fileID: 21300000, guid: 4a643494bdea168479e8de8698775b85, type: 3}
    - {fileID: 21300000, guid: d0fc8c27bd2d9d44e88e8a240ad8f68f, type: 3}
  m_AnimationClipSettings:
    serializedVersion: 2
    m_AdditiveReferencePoseClip: {fileID: 0}
    m_AdditiveReferencePoseTime: 0
    m_StartTime: 0
    m_StopTime: 1.0166667
    m_OrientationOffsetY: 0
    m_Level: 0
    m_CycleOffset: 0
    m_HasAdditiveReferencePose: 0
    m_LoopTime: 1
    m_LoopBlend: 0
    m_LoopBlendOrientation: 0
    m_LoopBlendPositionY: 0
    m_LoopBlendPositionXZ: 0
    m_KeepOriginalOrientation: 0
    m_KeepOriginalPositionY: 1
    m_KeepOriginalPositionXZ: 0
    m_HeightFromFeet: 0
    m_Mirror: 0
  m_EditorCurves: []
  m_EulerEditorCurves: []
  m_HasGenericRootTransform: 0
  m_HasMotionFloatCurves: 0
  m_Events: []
